12/02/21 17:19

Problem 1 (13 points):
Score += 13

Problem 2 (15 points):
-2 pts incorrect plot height
Score += 13

Problem 3 (17 points):
Score += 17

code quality  (5 points):
Score += 5

Total score: 48/50 = 96.0%

Great job!

-------------------------------------------------------------------------------

