09/22/21 18:28

Problem 1 (9 points):
Score += 9

Problem 2 (9 points):
Score += 9

Problem 3 (12 points):
Score += 12

Problem 4 (15 points):
Score += 15

Code Quality (5 points):
Score += 5

Total score: 50/50 = 100.0%

Excellent!

-------------------------------------------------------------------------------

