03/30/22 21:08

Problem 1 (10 points):
Score += 10

Problem 2 (10 points):
Score += 10

Problem 3 (25 points):
incorrect shape for V and controls not plotted
Score += 19

Code Quality (5 points):
Score += 5

Total score: 44/50 = 88.0%

-------------------------------------------------------------------------------

