03/31/22 00:22

Problem 1 (15 points):
Score += 15

Problem 2 (15 points):
Score += 15

Problem 3 (15 points):
Score += 15

Code Quality (5 points):
Score += 5

Total score: 50/50 = 100.0%

Excellent!

-------------------------------------------------------------------------------

