12/09/21 15:16

Problem 1 (14 points):
Score += 14

Problem 2 (16 points):
Score += 16

Problem 3 (15 points):
-3 pts graph incomplete
Score += 12

Code Quality (5 points):
Score += 5

Total score: 47/50 = 94.0%

Great job!

-------------------------------------------------------------------------------

