03/03/22 18:34

Problem 1 (10 points):
Score += 10

Problem 2 (15 points):
Score += 15

Problem 3 (20 points):
Score += 20

Code Quality (5 points):
Score += 5

Total score: 50/50 = 100.0%

Excellent!

-------------------------------------------------------------------------------

