12/04/21 14:56

Problem 1 (15 points):
Score += 15

Problem 2 (15 points):
Score += 15

Problem 3 (15 points):
Score += 15

code quality (5 points):
Score += 5

Total score: 50/50 = 100.0%

Excellent!

-------------------------------------------------------------------------------

